[{
    "presentacion_inicial": {
        "privada": "<b>YO: {nombre_deudor}</b>, de {edad_deudor} años de edad, {profesion_deudor}, del domicilio de {municipio_deudor}, departamento de {departamento_deudor}, con Documento Único de Identidad {documentoIdentificacionDeudor}; que en lo sucesivo me denominaré <b>\"{titulo_deudor}\"</b>, por medio de este documento <b>OTORGO: </b>",
        "legal": "En la ciudad de {municipio_agencia}, departamento de {departamento_agencia}, {fecha_hora_generacion}. Ante mí, <b>JOSE LUIS REYES AMAYA</b>, Notario, del domicilio de Mejicanos, departamento de San Salvador, {complemento_presentacion_inicial_legal}"
    },
    "descripcion_coope_monto": {
        "privada": "Que la <b>ASOCIACIÓN COOPERATIVA DE AHORRO, CRÉDITO Y PRODUCCIÓN AGROPECUARIA COMUNAL DE NUEVA CONCEPCIÓN, DE RESPONSABILIDAD LIMITADA,</b> que se abrevia <b>ACACYPAC N.C. de R.L.,</b> del domicilio de Nueva Concepción, departamento de Chalatenango, con Número de Identificación Tributaria cero cuatro uno seis - dos cinco cero cuatro siete uno - cero cero uno - ocho, que en lo sucesivo se denominará <b>\"LA COOPERATIVA\",</b> me ha concedido un crédito a título de mutuo, por la cantidad de <b>{monto_credito},</b> suma de dinero que he recibido a mi entera satisfacción. ",
        "legal": "{reconocimiento_firma_legal} que en esta fecha la <b>ASOCIACIÓN COOPERATIVA DE AHORRO, CRÉDITO Y PRODUCCIÓN AGROPECUARIA COMUNAL DE NUEVA CONCEPCIÓN, DE RESPONSABILIDAD LIMITADA,</b> que se abrevia <b>ACACYPAC N.C. de R.L.,</b> del domicilio de Nueva Concepción, departamento de Chalatenango, con Número de Identificación Tributaria cero cuatro uno seis - dos cinco cero cuatro siete uno - cero cero uno - ocho, que en lo sucesivo se denominará <b>\"LA COOPERATIVA\",</b> le ha concedido un crédito por la suma de <b>{monto_credito},</b> suma de dinero que ha recibido en este acto a su entera satisfacción. "
    },
    "descripcion_intereses": {
        "privada": "<b>INTERESES: </b>La cantidad mutuada devengará el <b>{tasa_interes} POR CIENTO DE INTERÉS ANUAL</b> sobre saldos sujetos a modificación posterior de acuerdo a fluctuación de mercado de capital nacional y extranjero. ",
        "legal": "<b>INTERESES: </b>La cantidad mutuada devengará el <b>{tasa_interes} POR CIENTO DE INTERÉS ANUAL</b> sobre saldos sujetos a modificación posterior de acuerdo a fluctuación de mercado de capital nacional y extranjero. "
    },
    "descripcion_plazo": {
        "privada": "<b>PLAZO: </b>La cantidad mutuada será pagada a La Cooperativa en el plazo de {plazo}, contados a partir de esta fecha, pagaderos por medio de {definicion_plazo}.{clausula_seguro_privada} ",
        "legal": "<b>PLAZO: </b>La cantidad mutuada será pagada a La Cooperativa en el plazo de {plazo}, contados a partir de esta fecha, pagaderos por medio de {definicion_plazo}.{clausula_seguro_legal} "
    },
    "descripcion_plazo_rotativa": {
        "privada": "<b>PLAZO: </b>El plazo otorgado para cancelar los fondos retirados en uso de la presente apertura de crédito será según el tiempo establecido en cada uno de los pagarés suscritos u otro documento legalmente permisible aceptados por {titulo_deudor} a favor del La Cooperativa; y contados a partir de la fecha de suscripción que amparen cada desembolso ",
        "legal": "<b>PLAZO: </b>El plazo otorgado para cancelar los fondos retirados en uso de la presente apertura de crédito será según el tiempo establecido en cada uno de los pagarés suscritos u otro documento legalmente permisible aceptados por {titulo_deudor} a favor del La Cooperativa; y contados a partir de la fecha de suscripción que amparen cada desembolso "
    },
    "descripcion_plazo_giro":{
        "privada":"<b>PLAZO DEL GIRO: </b>Se podrá hacer uso de los fondos durante el plazo de {plazo}, contado a partir de esta fecha que vence el día {fecha_vencimiento}. Transcurrido el plazo se extinguirá el derecho de hacer uso de los fondos disponibles en virtud de esta apertura de crédito salvo prórroga del mismo, con previo acuerdo con la cooperativa. ",
        "legal":"<b>PLAZO DEL GIRO: </b>Se podrá hacer uso de los fondos durante el plazo de {plazo}, contado a partir de esta fecha que vence el día {fecha_vencimiento}. Transcurrido el plazo se extinguirá el derecho de hacer uso de los fondos disponibles en virtud de esta apertura de crédito salvo prórroga del mismo, con previo acuerdo con la cooperativa. "
    },
    "descripcion_limites_rotativo":{
        "privada":"<b>LÍMITES PARA DESEMBOLSOS, CARACTER ROTATIVO: </b>no se podrá hacer uso de la presente Apertura de Crédito en exceso del saldo disponible determinado por La Cooperativa a la fecha de cada desembolso. Es entendido que los abonos a capital en virtud de pagos efectuados otorgan a {titulo_deudor} dentro del plazo del giro, el derecho de hacer retiros por el saldo disponible determinado por La Cooperativa a favor de {titulo_deudor}. ",
        "legal":"<b>LÍMITES PARA DESEMBOLSOS, CARACTER ROTATIVO: </b>no se podrá hacer uso de la presente Apertura de Crédito en exceso del saldo disponible determinado por La Cooperativa a la fecha de cada desembolso. Es entendido que los abonos a capital en virtud de pagos efectuados otorgan a {titulo_deudor} dentro del plazo del giro, el derecho de hacer retiros por el saldo disponible determinado por La Cooperativa a favor de {titulo_deudor}. "
    },
    "descripcion_amortizacion":{
        "privada":"<b>AMORTIZACIÓN: </b>Yo, {titulo_deudor} me obligo a efectuar el pago de las sumas retiradas en uso de la presente apertura de crédito así: cancelará intereses mensualmente sobre saldos del capital vigente y al vencimiento de cada uno de los pagarés suscritos que amparen cada desembolso, realizar el pago del total del capital pendiente, obligándose también a pagar los intereses. Además, me obligo a mantener vigente durante el plazo del presente préstamo la póliza de seguro que garantiza el presente crédito, a pagar las primas oportunamente. Declaro que me obligo con la compañía Aseguradora a pagar los incrementos de prima resultantes en la renovación de la misma y cuyo monto en caso de estar incluido en la cuota de amortización del presente Crédito, y autorizo expresamente a La Cooperativa para incrementar el valor de la misma, de manera que sea cubierto el pago de la nueva prima. ",
        "legal":"<b>AMORTIZACIÓN: </b>{titulo_deudor} se obliga a efectuar el pago de las sumas retiradas en uso de la presente apertura de crédito así: cancelará intereses mensualmente sobre saldos del capital vigente y al vencimiento de cada uno de los pagarés suscritos que amparen cada desembolso, realizar el pago del total del capital pendiente, obligándose también a pagar los intereses. Además, se obliga a mantener vigente durante el plazo del presente préstamo la póliza de seguro que garantiza el presente crédito, a pagar las primas oportunamente. declara que se obliga con la compañía Aseguradora a pagar los incrementos de prima resultantes en la renovación de la misma y cuyo monto en caso de estar incluido en la cuota de amortización del presente Crédito, y autoriza expresamente a La Cooperativa para incrementar el valor de la misma, de manera que sea cubierto el pago de la nueva prima. "
    },
    "descripcion_lugar_pagos":{
        "privada":"<b>LUGAR E IMPUTACIÓN DE PAGOS: </b>Todo pago se hará en moneda de curso legal, en cualquiera de las Agencias de La Cooperativa. ",
        "legal":"<b>LUGAR E IMPUTACIÓN DE PAGOS: </b>Todo pago se hará en moneda de curso legal, en cualquiera de las Agencias de La Cooperativa. "
    },
    "descripcion_fuente_fondos": {
        "privada": "<b>FUENTE DE LOS FONDOS: </b>El presente crédito es otorgado con fondos {fuente_fondos}. ",
        "legal": "<b>FUENTE DE LOS FONDOS: </b>El presente crédito es otorgado con fondos {fuente_fondos}. "
    },
    "descripcion_destino": {
        "privada": "<b>DESTINO: </b>Los fondos del presente crédito serán invertidos para <b>{destino}.</b> ",
        "legal": "<b>DESTINO: </b>Los fondos del presente crédito serán invertidos para <b>{destino}.</b> "
    },
    "descripcion_autorizacion_especial":{
        "privada":"<b>AUTORIZACIÓN ESPECIAL: </b>Para mayor garantía, yo, <b>{titulo_deudor}</b> autorizo a La Cooperativa que las aportaciones presentes y las que se capitalicen, ahorros a la fecha en que incurra en mora se amorticen al saldo que de éste crédito existiere a la fecha, ya sea de capital o intereses y no podrán servir para garantizar créditos futuros para cancelar el presente. ",
        "legal":"<b>AUTORIZACIÓN ESPECIAL: </b>Para mayor garantía, <b>{titulo_deudor}</b> autoriza a La Cooperativa que las aportaciones presentes y las que se capitalicen, ahorros a la fecha en que incurra en mora se amorticen al saldo que de éste crédito existiere a la fecha, ya sea de capital o intereses y no podrán servir para garantizar créditos futuros para cancelar el presente. "
    },
    "descripcion_caducidad_plazo": {
        "privada": "<b>CADUCIDAD DE PLAZO: </b>El plazo caducará y La Cooperativa podrá exigir el pago de la deuda en su totalidad como si fuere de plazo vencido en cualquiera de los siguientes casos: a) Por ejecución promovida contra {titulo_deudor} por terceras personas o por La Cooperativa por deuda distinta a la presente. b) Por ausencia temporal, definitiva o por muerte de {titulo_deudor}. C) Por mora en el pago de interés en la forma pactada. d) Por la falta de pago de una o más cuotas de capital e intereses del crédito concedido o que se concedan en el futuro a {titulo_deudor}. e) Por el incumplimiento de cualquiera de las estipulaciones de este contrato. f) Si se invierte parte o el total del préstamo en fines distintos a los consignados en este documento. ",
        "legal": "<b>CADUCIDAD DE PLAZO: </b>El plazo caducará y La Cooperativa podrá exigir el pago de la deuda en su totalidad como si fuere de plazo vencido en cualquiera de los siguientes casos: a) Por ejecución promovida contra {titulo_deudor} por terceras personas o por La Cooperativa por deuda distinta a la presente. b) Por ausencia temporal, definitiva o por muerte de {titulo_deudor}. C) Por mora en el pago de interés en la forma pactada. d) Por la falta de pago de una o más cuotas de capital e intereses del crédito concedido o que se concedan en el futuro a {titulo_deudor}. e) Por el incumplimiento de cualquiera de las estipulaciones de este contrato. f) Si se invierte parte o el total del préstamo en fines distintos a los consignados en este documento. "
    },
    "descripcion_interes_mora": {
        "privada": "<b>INTERÉS POR MORA: </b>Todo saldo en mora devengará el <b>TREINTA Y SEIS</b> por ciento de interés anual adicional al pactado, recargo que se aplicará si el saldo en mora no es pagado al vencimiento del plazo, ya sea que se trate de una cuota de amortización o del saldo total del préstamo. ",
        "legal": "<b>INTERÉS POR MORA: </b>Todo saldo en mora devengará el <b>TREINTA Y SEIS</b> por ciento de interés anual adicional al pactado, recargo que se aplicará si el saldo en mora no es pagado al vencimiento del plazo, ya sea que se trate de una cuota de amortización o del saldo total del préstamo. "
    },
    "descripcion_obligacion_pago": {
        "privada": "<b>{titulo_participantes}</b>, {obligacion_participantes_privada} a pagar todos y cada uno de los gastos en que incurra La Cooperativa en el cobro de este adeudo y accesorios, tales como: El trece por ciento más impuesto del valor agregado (IVA) de cobro prejudicial y el dieciocho por ciento más impuesto del valor agregado (IVA) de cobro judicial, así como también los gastos de este contrato. <b>{titulo_participantes}</b> {aceptacion_participantes_privada} que de tener constituidas garantías hipotecarias o prendarias a favor de La Cooperativa, no se liberen mientras esté vigente esta obligación. ",
        "legal": "<b>{titulo_participantes}</b>, {obligacion_participantes_legal} a pagar todos y cada uno de los gastos en que incurra La Cooperativa en el cobro de este adeudo y accesorios, tales como: El trece por ciento más impuesto del valor agregado (IVA) de cobro prejudicial y el dieciocho por ciento más impuesto del valor agregado (IVA) de cobro judicial, así como también los gastos de este contrato. <b>{titulo_participantes}</b> {aceptacion_participantes_legal} que de tener constituidas garantías hipotecarias o prendarias a favor de La Cooperativa, no se le liberen mientras esté vigente esta obligación. "
    },
    "descripcion_domicilio_firma": {
        "privada": "Para todos los efectos judiciales y extrajudiciales de este contrato {seniala_participantes_privada} como domicilio especial la ciudad de San Salvador y el de esta ciudad a cuyos tribunales {somete_participantes_privada}. {desembolsos_parciales_privada}Así {expresion_participantes_privada} y en fé de lo contratado, {firma_participantes_privada}, en la ciudad de {municipio_agencia}, departamento de {departamento_agencia}, el día {fecha_generacion}.",
        "legal": "<b>{titulo_participantes},</b> {seniala_participantes_legal} como domicilio especial la ciudad de San Salvador y el de esta ciudad a cuyos tribunales se {somete_participantes_legal}; {desembolsos_parciales_legal}en fé de lo anterior, firmamos este contrato que consta de {cantidad_folios} útiles fechado al dia de hoy en esta ciudad. Yo, el Notario, <b>DOY FE: </b> {reconocimiento_firma_participantes}. Así se {expresa_participantes} expliqué los efectos legales de esta acta notarial que consta de {cantidad_folios} útiles y leída que {le_legal} íntegramente todo lo escrito, en un sólo acto ininterrumpido, {manifiesta_participantes} su conformidad, {ratifica_participantes} el contenido y {firma_participantes_legal}. <b>DOY FE.</b>"
    }
}]